{"failedCount":1,"prefixedPath":"src\/test\/java\/Test\/Get.feature","packageQualifiedName":"src.test.java.Test.Get","loopIndex":-1,"relativePath":"src\/test\/java\/Test\/Get.feature","scenarioResults":[{"sectionIndex":0,"stepResults":[{"result":{"nanos":162020800,"millis":162.0208,"status":"passed"},"step":{"background":true,"line":5,"prefix":"*","index":0,"text":"url 'https:\/\/reqres.in\/api'"}},{"result":{"nanos":1104500,"millis":1.1045,"status":"passed"},"step":{"background":true,"line":6,"prefix":"*","index":1,"text":"header Accept = 'application\/json'"}},{"result":{"nanos":798600,"millis":0.7986,"status":"passed"},"step":{"line":9,"prefix":"Given","index":0,"text":"url 'https:\/\/reqres.in\/api\/users?page=2'"}},{"result":{"nanos":1308593800,"millis":1308.5938,"status":"passed"},"step":{"line":10,"prefix":"When","index":1,"text":"method Get"},"stepLog":"21:31:02.583 request:\n1 > GET https:\/\/reqres.in\/api\/users?page=2\n1 > Accept: application\/json\n1 > Host: reqres.in\n1 > Connection: Keep-Alive\n1 > User-Agent: Apache-HttpClient\/4.5.13 (Java\/17.0.4.1)\n1 > Accept-Encoding: gzip,deflate\n\n\n21:31:03.213 response time in milliseconds: 623\n1 < 200\n1 < Date: Sat, 24 Sep 2022 01:31:03 GMT\n1 < Content-Type: application\/json; charset=utf-8\n1 < Transfer-Encoding: chunked\n1 < Connection: keep-alive\n1 < X-Powered-By: Express\n1 < Access-Control-Allow-Origin: *\n1 < Etag: W\/\"406-ut0vzoCuidvyMf8arZpMpJ6ZRDw\"\n1 < Via: 1.1 vegur\n1 < Cache-Control: max-age=14400\n1 < CF-Cache-Status: HIT\n1 < Age: 3942\n1 < Report-To: {\"endpoints\":[{\"url\":\"https:\\\/\\\/a.nel.cloudflare.com\\\/report\\\/v3?s=bTq1g7idjERvhfJ%2FhXSMXLvyoiV%2FSYDxUbJVzxBlsCmkcO%2BzTAAUxQc9bSWRA03y1vQI0qXOqctel08ZrG13DLYz0veue70qFZ1%2BHoyKxzKOPahDtyOmzJQ8Cg%3D%3D\"}],\"group\":\"cf-nel\",\"max_age\":604800}\n1 < NEL: {\"success_fraction\":0,\"report_to\":\"cf-nel\",\"max_age\":604800}\n1 < Vary: Accept-Encoding\n1 < Server: cloudflare\n1 < CF-RAY: 74f7c2203c385cbe-IAD\n{\"page\":2,\"per_page\":6,\"total\":12,\"total_pages\":2,\"data\":[{\"id\":7,\"email\":\"michael.lawson@reqres.in\",\"first_name\":\"Michael\",\"last_name\":\"Lawson\",\"avatar\":\"https:\/\/reqres.in\/img\/faces\/7-image.jpg\"},{\"id\":8,\"email\":\"lindsay.ferguson@reqres.in\",\"first_name\":\"Lindsay\",\"last_name\":\"Ferguson\",\"avatar\":\"https:\/\/reqres.in\/img\/faces\/8-image.jpg\"},{\"id\":9,\"email\":\"tobias.funke@reqres.in\",\"first_name\":\"Tobias\",\"last_name\":\"Funke\",\"avatar\":\"https:\/\/reqres.in\/img\/faces\/9-image.jpg\"},{\"id\":10,\"email\":\"byron.fields@reqres.in\",\"first_name\":\"Byron\",\"last_name\":\"Fields\",\"avatar\":\"https:\/\/reqres.in\/img\/faces\/10-image.jpg\"},{\"id\":11,\"email\":\"george.edwards@reqres.in\",\"first_name\":\"George\",\"last_name\":\"Edwards\",\"avatar\":\"https:\/\/reqres.in\/img\/faces\/11-image.jpg\"},{\"id\":12,\"email\":\"rachel.howell@reqres.in\",\"first_name\":\"Rachel\",\"last_name\":\"Howell\",\"avatar\":\"https:\/\/reqres.in\/img\/faces\/12-image.jpg\"}],\"support\":{\"url\":\"https:\/\/reqres.in\/#support-heading\",\"text\":\"To keep ReqRes free, contributions towards server costs are appreciated!\"}}\n\n"},{"result":{"nanos":42800,"millis":0.0428,"status":"passed"},"step":{"line":11,"prefix":"Then","index":2,"text":"status 200"}},{"result":{"nanos":122357800,"millis":122.3578,"status":"passed"},"step":{"line":12,"prefix":"And","index":3,"text":"print response"},"stepLog":"21:31:03.398 [print] {\n  \"page\": 2,\n  \"per_page\": 6,\n  \"total\": 12,\n  \"total_pages\": 2,\n  \"data\": [\n    {\n      \"id\": 7,\n      \"email\": \"michael.lawson@reqres.in\",\n      \"first_name\": \"Michael\",\n      \"last_name\": \"Lawson\",\n      \"avatar\": \"https:\/\/reqres.in\/img\/faces\/7-image.jpg\"\n    },\n    {\n      \"id\": 8,\n      \"email\": \"lindsay.ferguson@reqres.in\",\n      \"first_name\": \"Lindsay\",\n      \"last_name\": \"Ferguson\",\n      \"avatar\": \"https:\/\/reqres.in\/img\/faces\/8-image.jpg\"\n    },\n    {\n      \"id\": 9,\n      \"email\": \"tobias.funke@reqres.in\",\n      \"first_name\": \"Tobias\",\n      \"last_name\": \"Funke\",\n      \"avatar\": \"https:\/\/reqres.in\/img\/faces\/9-image.jpg\"\n    },\n    {\n      \"id\": 10,\n      \"email\": \"byron.fields@reqres.in\",\n      \"first_name\": \"Byron\",\n      \"last_name\": \"Fields\",\n      \"avatar\": \"https:\/\/reqres.in\/img\/faces\/10-image.jpg\"\n    },\n    {\n      \"id\": 11,\n      \"email\": \"george.edwards@reqres.in\",\n      \"first_name\": \"George\",\n      \"last_name\": \"Edwards\",\n      \"avatar\": \"https:\/\/reqres.in\/img\/faces\/11-image.jpg\"\n    },\n    {\n      \"id\": 12,\n      \"email\": \"rachel.howell@reqres.in\",\n      \"first_name\": \"Rachel\",\n      \"last_name\": \"Howell\",\n      \"avatar\": \"https:\/\/reqres.in\/img\/faces\/12-image.jpg\"\n    }\n  ],\n  \"support\": {\n    \"url\": \"https:\/\/reqres.in\/#support-heading\",\n    \"text\": \"To keep ReqRes free, contributions towards server costs are appreciated!\"\n  }\n}\n \n"},{"result":{"nanos":2146500,"millis":2.1465,"status":"passed"},"step":{"line":13,"prefix":"And","index":4,"text":"print responseStatus"},"stepLog":"21:31:03.405 [print] 200 \n"},{"result":{"nanos":2809200,"millis":2.8092,"status":"passed"},"step":{"line":14,"prefix":"And","index":5,"text":"print responseTime"},"stepLog":"21:31:03.408 [print] 623 \n"},{"result":{"nanos":4385000,"millis":4.385,"status":"passed"},"step":{"line":15,"prefix":"And","index":6,"text":"print responseHeaders"},"stepLog":"21:31:03.413 [print] {\n  \"Date\": [\n    \"Sat, 24 Sep 2022 01:31:03 GMT\"\n  ],\n  \"Content-Type\": [\n    \"application\/json; charset=utf-8\"\n  ],\n  \"Transfer-Encoding\": [\n    \"chunked\"\n  ],\n  \"Connection\": [\n    \"keep-alive\"\n  ],\n  \"X-Powered-By\": [\n    \"Express\"\n  ],\n  \"Access-Control-Allow-Origin\": [\n    \"*\"\n  ],\n  \"Etag\": [\n    \"W\/\\\"406-ut0vzoCuidvyMf8arZpMpJ6ZRDw\\\"\"\n  ],\n  \"Via\": [\n    \"1.1 vegur\"\n  ],\n  \"Cache-Control\": [\n    \"max-age=14400\"\n  ],\n  \"CF-Cache-Status\": [\n    \"HIT\"\n  ],\n  \"Age\": [\n    \"3942\"\n  ],\n  \"Report-To\": [\n    \"{\\\"endpoints\\\":[{\\\"url\\\":\\\"https:\\\\\/\\\\\/a.nel.cloudflare.com\\\\\/report\\\\\/v3?s=bTq1g7idjERvhfJ%2FhXSMXLvyoiV%2FSYDxUbJVzxBlsCmkcO%2BzTAAUxQc9bSWRA03y1vQI0qXOqctel08ZrG13DLYz0veue70qFZ1%2BHoyKxzKOPahDtyOmzJQ8Cg%3D%3D\\\"}],\\\"group\\\":\\\"cf-nel\\\",\\\"max_age\\\":604800}\"\n  ],\n  \"NEL\": [\n    \"{\\\"success_fraction\\\":0,\\\"report_to\\\":\\\"cf-nel\\\",\\\"max_age\\\":604800}\"\n  ],\n  \"Vary\": [\n    \"Accept-Encoding\"\n  ],\n  \"Server\": [\n    \"cloudflare\"\n  ],\n  \"CF-RAY\": [\n    \"74f7c2203c385cbe-IAD\"\n  ]\n}\n \n"},{"result":{"nanos":2940700,"millis":2.9407,"status":"passed"},"step":{"line":16,"prefix":"And","index":7,"text":"print responseCookies"},"stepLog":"21:31:03.416 [print] null \n"}],"executorName":"main","line":8,"name":"Get Demo one","description":"","durationMillis":1607.1997,"startTime":1663983061773,"failed":false,"refId":"[1:8]","endTime":1663983063416,"exampleIndex":-1},{"sectionIndex":1,"stepResults":[{"result":{"nanos":2322800,"millis":2.3228,"status":"passed"},"step":{"background":true,"line":5,"prefix":"*","index":0,"text":"url 'https:\/\/reqres.in\/api'"}},{"result":{"nanos":970800,"millis":0.9708,"status":"passed"},"step":{"background":true,"line":6,"prefix":"*","index":1,"text":"header Accept = 'application\/json'"}},{"result":{"nanos":1192400,"millis":1.1924,"status":"passed"},"step":{"line":20,"prefix":"Given","index":0,"text":"path '\/users?page=2'"}},{"result":{"nanos":119613000,"millis":119.613,"status":"passed"},"step":{"line":21,"prefix":"When","index":1,"text":"method Get"},"stepLog":"21:31:03.433 request:\n1 > GET https:\/\/reqres.in\/api\/users%3Fpage=2\n1 > Accept: application\/json\n1 > Host: reqres.in\n1 > Connection: Keep-Alive\n1 > User-Agent: Apache-HttpClient\/4.5.13 (Java\/17.0.4.1)\n1 > Accept-Encoding: gzip,deflate\n\n\n21:31:03.548 response time in milliseconds: 115\n1 < 200\n1 < Date: Sat, 24 Sep 2022 01:31:03 GMT\n1 < Content-Type: application\/json; charset=utf-8\n1 < Transfer-Encoding: chunked\n1 < Connection: keep-alive\n1 < X-Powered-By: Express\n1 < Access-Control-Allow-Origin: *\n1 < Etag: W\/\"2c1-N6Rqerxquq2kgQhL51EiSg4x0R8\"\n1 < Via: 1.1 vegur\n1 < Cache-Control: max-age=14400\n1 < CF-Cache-Status: HIT\n1 < Age: 889\n1 < Report-To: {\"endpoints\":[{\"url\":\"https:\\\/\\\/a.nel.cloudflare.com\\\/report\\\/v3?s=XOkjQNaI8L4HEQkeiQ7WOreghlqqQ53j86FtkDUyqsmXQjCXCZyDzqxYmnHaIDDnk6J3Hw5Eahpz9Dx0PfHix6ZDTuU0uBcR5z%2BDL33A9dpK6R6IgAbDF0XHAA%3D%3D\"}],\"group\":\"cf-nel\",\"max_age\":604800}\n1 < NEL: {\"success_fraction\":0,\"report_to\":\"cf-nel\",\"max_age\":604800}\n1 < Vary: Accept-Encoding\n1 < Server: cloudflare\n1 < CF-RAY: 74f7c2228b8e9c49-IAD\n{\"page\":1,\"per_page\":6,\"total\":12,\"total_pages\":2,\"data\":[{\"id\":1,\"name\":\"cerulean\",\"year\":2000,\"color\":\"#98B2D1\",\"pantone_value\":\"15-4020\"},{\"id\":2,\"name\":\"fuchsia rose\",\"year\":2001,\"color\":\"#C74375\",\"pantone_value\":\"17-2031\"},{\"id\":3,\"name\":\"true red\",\"year\":2002,\"color\":\"#BF1932\",\"pantone_value\":\"19-1664\"},{\"id\":4,\"name\":\"aqua sky\",\"year\":2003,\"color\":\"#7BC4C4\",\"pantone_value\":\"14-4811\"},{\"id\":5,\"name\":\"tigerlily\",\"year\":2004,\"color\":\"#E2583E\",\"pantone_value\":\"17-1456\"},{\"id\":6,\"name\":\"blue turquoise\",\"year\":2005,\"color\":\"#53B0AE\",\"pantone_value\":\"15-5217\"}],\"support\":{\"url\":\"https:\/\/reqres.in\/#support-heading\",\"text\":\"To keep ReqRes free, contributions towards server costs are appreciated!\"}}\n\n"},{"result":{"nanos":13000,"millis":0.013,"status":"passed"},"step":{"line":22,"prefix":"Then","index":2,"text":"status 200"}},{"result":{"nanos":1334700,"millis":1.3347,"status":"passed"},"step":{"line":23,"prefix":"And","index":3,"text":"print response"},"stepLog":"21:31:03.551 [print] {\n  \"page\": 1,\n  \"per_page\": 6,\n  \"total\": 12,\n  \"total_pages\": 2,\n  \"data\": [\n    {\n      \"id\": 1,\n      \"name\": \"cerulean\",\n      \"year\": 2000,\n      \"color\": \"#98B2D1\",\n      \"pantone_value\": \"15-4020\"\n    },\n    {\n      \"id\": 2,\n      \"name\": \"fuchsia rose\",\n      \"year\": 2001,\n      \"color\": \"#C74375\",\n      \"pantone_value\": \"17-2031\"\n    },\n    {\n      \"id\": 3,\n      \"name\": \"true red\",\n      \"year\": 2002,\n      \"color\": \"#BF1932\",\n      \"pantone_value\": \"19-1664\"\n    },\n    {\n      \"id\": 4,\n      \"name\": \"aqua sky\",\n      \"year\": 2003,\n      \"color\": \"#7BC4C4\",\n      \"pantone_value\": \"14-4811\"\n    },\n    {\n      \"id\": 5,\n      \"name\": \"tigerlily\",\n      \"year\": 2004,\n      \"color\": \"#E2583E\",\n      \"pantone_value\": \"17-1456\"\n    },\n    {\n      \"id\": 6,\n      \"name\": \"blue turquoise\",\n      \"year\": 2005,\n      \"color\": \"#53B0AE\",\n      \"pantone_value\": \"15-5217\"\n    }\n  ],\n  \"support\": {\n    \"url\": \"https:\/\/reqres.in\/#support-heading\",\n    \"text\": \"To keep ReqRes free, contributions towards server costs are appreciated!\"\n  }\n}\n \n"}],"executorName":"main","line":19,"name":"Get Demo 2","description":"","durationMillis":125.4467,"startTime":1663983063426,"failed":false,"refId":"[2:19]","endTime":1663983063552,"exampleIndex":-1},{"sectionIndex":2,"stepResults":[{"result":{"nanos":222600,"millis":0.2226,"status":"passed"},"step":{"background":true,"line":5,"prefix":"*","index":0,"text":"url 'https:\/\/reqres.in\/api'"}},{"result":{"nanos":165700,"millis":0.1657,"status":"passed"},"step":{"background":true,"line":6,"prefix":"*","index":1,"text":"header Accept = 'application\/json'"}},{"result":{"nanos":846300,"millis":0.8463,"status":"passed"},"step":{"line":26,"prefix":"Given","index":0,"text":"path '\/users'"}},{"result":{"nanos":3216900,"millis":3.2169,"status":"passed"},"step":{"line":27,"prefix":"And","index":1,"text":"param page = 2"}},{"result":{"nanos":122680900,"millis":122.6809,"status":"passed"},"step":{"line":28,"prefix":"When","index":2,"text":"method Get"},"stepLog":"21:31:03.567 request:\n1 > GET https:\/\/reqres.in\/api\/users?page=2\n1 > Accept: application\/json\n1 > Host: reqres.in\n1 > Connection: Keep-Alive\n1 > User-Agent: Apache-HttpClient\/4.5.13 (Java\/17.0.4.1)\n1 > Accept-Encoding: gzip,deflate\n\n\n21:31:03.686 response time in milliseconds: 118\n1 < 200\n1 < Date: Sat, 24 Sep 2022 01:31:03 GMT\n1 < Content-Type: application\/json; charset=utf-8\n1 < Transfer-Encoding: chunked\n1 < Connection: keep-alive\n1 < X-Powered-By: Express\n1 < Access-Control-Allow-Origin: *\n1 < Etag: W\/\"406-ut0vzoCuidvyMf8arZpMpJ6ZRDw\"\n1 < Via: 1.1 vegur\n1 < Cache-Control: max-age=14400\n1 < CF-Cache-Status: HIT\n1 < Age: 6447\n1 < Report-To: {\"endpoints\":[{\"url\":\"https:\\\/\\\/a.nel.cloudflare.com\\\/report\\\/v3?s=hO3oWy61ZqURSCx4QD6%2Figc8xuiPlOfjrLlVZ9sBl4tC5ziFOfcp%2Fc8DJRHJnbo9SY7wxxncSli4YiX7bdyEqQKdneigOqIYO12ljRxkhoKLKl4EzAx9Ip%2F2ag%3D%3D\"}],\"group\":\"cf-nel\",\"max_age\":604800}\n1 < NEL: {\"success_fraction\":0,\"report_to\":\"cf-nel\",\"max_age\":604800}\n1 < Vary: Accept-Encoding\n1 < Server: cloudflare\n1 < CF-RAY: 74f7c2234e33700a-IAD\n{\"page\":2,\"per_page\":6,\"total\":12,\"total_pages\":2,\"data\":[{\"id\":7,\"email\":\"michael.lawson@reqres.in\",\"first_name\":\"Michael\",\"last_name\":\"Lawson\",\"avatar\":\"https:\/\/reqres.in\/img\/faces\/7-image.jpg\"},{\"id\":8,\"email\":\"lindsay.ferguson@reqres.in\",\"first_name\":\"Lindsay\",\"last_name\":\"Ferguson\",\"avatar\":\"https:\/\/reqres.in\/img\/faces\/8-image.jpg\"},{\"id\":9,\"email\":\"tobias.funke@reqres.in\",\"first_name\":\"Tobias\",\"last_name\":\"Funke\",\"avatar\":\"https:\/\/reqres.in\/img\/faces\/9-image.jpg\"},{\"id\":10,\"email\":\"byron.fields@reqres.in\",\"first_name\":\"Byron\",\"last_name\":\"Fields\",\"avatar\":\"https:\/\/reqres.in\/img\/faces\/10-image.jpg\"},{\"id\":11,\"email\":\"george.edwards@reqres.in\",\"first_name\":\"George\",\"last_name\":\"Edwards\",\"avatar\":\"https:\/\/reqres.in\/img\/faces\/11-image.jpg\"},{\"id\":12,\"email\":\"rachel.howell@reqres.in\",\"first_name\":\"Rachel\",\"last_name\":\"Howell\",\"avatar\":\"https:\/\/reqres.in\/img\/faces\/12-image.jpg\"}],\"support\":{\"url\":\"https:\/\/reqres.in\/#support-heading\",\"text\":\"To keep ReqRes free, contributions towards server costs are appreciated!\"}}\n\n"},{"result":{"nanos":16000,"millis":0.016,"status":"passed"},"step":{"line":29,"prefix":"Then","index":3,"text":"status 200"}},{"result":{"nanos":3117200,"millis":3.1172,"status":"passed"},"step":{"line":30,"prefix":"And","index":4,"text":"print response"},"stepLog":"21:31:03.690 [print] {\n  \"page\": 2,\n  \"per_page\": 6,\n  \"total\": 12,\n  \"total_pages\": 2,\n  \"data\": [\n    {\n      \"id\": 7,\n      \"email\": \"michael.lawson@reqres.in\",\n      \"first_name\": \"Michael\",\n      \"last_name\": \"Lawson\",\n      \"avatar\": \"https:\/\/reqres.in\/img\/faces\/7-image.jpg\"\n    },\n    {\n      \"id\": 8,\n      \"email\": \"lindsay.ferguson@reqres.in\",\n      \"first_name\": \"Lindsay\",\n      \"last_name\": \"Ferguson\",\n      \"avatar\": \"https:\/\/reqres.in\/img\/faces\/8-image.jpg\"\n    },\n    {\n      \"id\": 9,\n      \"email\": \"tobias.funke@reqres.in\",\n      \"first_name\": \"Tobias\",\n      \"last_name\": \"Funke\",\n      \"avatar\": \"https:\/\/reqres.in\/img\/faces\/9-image.jpg\"\n    },\n    {\n      \"id\": 10,\n      \"email\": \"byron.fields@reqres.in\",\n      \"first_name\": \"Byron\",\n      \"last_name\": \"Fields\",\n      \"avatar\": \"https:\/\/reqres.in\/img\/faces\/10-image.jpg\"\n    },\n    {\n      \"id\": 11,\n      \"email\": \"george.edwards@reqres.in\",\n      \"first_name\": \"George\",\n      \"last_name\": \"Edwards\",\n      \"avatar\": \"https:\/\/reqres.in\/img\/faces\/11-image.jpg\"\n    },\n    {\n      \"id\": 12,\n      \"email\": \"rachel.howell@reqres.in\",\n      \"first_name\": \"Rachel\",\n      \"last_name\": \"Howell\",\n      \"avatar\": \"https:\/\/reqres.in\/img\/faces\/12-image.jpg\"\n    }\n  ],\n  \"support\": {\n    \"url\": \"https:\/\/reqres.in\/#support-heading\",\n    \"text\": \"To keep ReqRes free, contributions towards server costs are appreciated!\"\n  }\n}\n \n"}],"executorName":"main","line":25,"name":"Get Demo 3","description":"","durationMillis":130.2656,"startTime":1663983063559,"failed":false,"refId":"[3:25]","endTime":1663983063691,"exampleIndex":-1},{"sectionIndex":3,"stepResults":[{"result":{"nanos":953700,"millis":0.9537,"status":"passed"},"step":{"background":true,"line":5,"prefix":"*","index":0,"text":"url 'https:\/\/reqres.in\/api'"}},{"result":{"nanos":792200,"millis":0.7922,"status":"passed"},"step":{"background":true,"line":6,"prefix":"*","index":1,"text":"header Accept = 'application\/json'"}},{"result":{"nanos":584200,"millis":0.5842,"status":"passed"},"step":{"line":34,"prefix":"Given","index":0,"text":"path '\/users'"}},{"result":{"nanos":680100,"millis":0.6801,"status":"passed"},"step":{"line":35,"prefix":"And","index":1,"text":"param page = 2"}},{"result":{"nanos":135761200,"millis":135.7612,"status":"passed"},"step":{"line":36,"prefix":"When","index":2,"text":"method Get"},"stepLog":"21:31:03.722 request:\n1 > GET https:\/\/reqres.in\/api\/users?page=2\n1 > Accept: application\/json\n1 > Host: reqres.in\n1 > Connection: Keep-Alive\n1 > User-Agent: Apache-HttpClient\/4.5.13 (Java\/17.0.4.1)\n1 > Accept-Encoding: gzip,deflate\n\n\n21:31:03.850 response time in milliseconds: 127\n1 < 200\n1 < Date: Sat, 24 Sep 2022 01:31:03 GMT\n1 < Content-Type: application\/json; charset=utf-8\n1 < Transfer-Encoding: chunked\n1 < Connection: keep-alive\n1 < X-Powered-By: Express\n1 < Access-Control-Allow-Origin: *\n1 < Etag: W\/\"406-ut0vzoCuidvyMf8arZpMpJ6ZRDw\"\n1 < Via: 1.1 vegur\n1 < Cache-Control: max-age=14400\n1 < CF-Cache-Status: HIT\n1 < Age: 350\n1 < Report-To: {\"endpoints\":[{\"url\":\"https:\\\/\\\/a.nel.cloudflare.com\\\/report\\\/v3?s=y%2Fj%2B8dypqz%2BLwmgn3wzI%2FqD29PkttZPrXXhFrho9dpC0Rue7q0o1bcP5AYon2ecDeU6HIFTOXPeJlkohsQCv93z%2B2ZkEbPHl8eWE6aWCTXpqssX2qacWCMk3cw%3D%3D\"}],\"group\":\"cf-nel\",\"max_age\":604800}\n1 < NEL: {\"success_fraction\":0,\"report_to\":\"cf-nel\",\"max_age\":604800}\n1 < Vary: Accept-Encoding\n1 < Server: cloudflare\n1 < CF-RAY: 74f7c2244cd35b34-IAD\n{\"page\":2,\"per_page\":6,\"total\":12,\"total_pages\":2,\"data\":[{\"id\":7,\"email\":\"michael.lawson@reqres.in\",\"first_name\":\"Michael\",\"last_name\":\"Lawson\",\"avatar\":\"https:\/\/reqres.in\/img\/faces\/7-image.jpg\"},{\"id\":8,\"email\":\"lindsay.ferguson@reqres.in\",\"first_name\":\"Lindsay\",\"last_name\":\"Ferguson\",\"avatar\":\"https:\/\/reqres.in\/img\/faces\/8-image.jpg\"},{\"id\":9,\"email\":\"tobias.funke@reqres.in\",\"first_name\":\"Tobias\",\"last_name\":\"Funke\",\"avatar\":\"https:\/\/reqres.in\/img\/faces\/9-image.jpg\"},{\"id\":10,\"email\":\"byron.fields@reqres.in\",\"first_name\":\"Byron\",\"last_name\":\"Fields\",\"avatar\":\"https:\/\/reqres.in\/img\/faces\/10-image.jpg\"},{\"id\":11,\"email\":\"george.edwards@reqres.in\",\"first_name\":\"George\",\"last_name\":\"Edwards\",\"avatar\":\"https:\/\/reqres.in\/img\/faces\/11-image.jpg\"},{\"id\":12,\"email\":\"rachel.howell@reqres.in\",\"first_name\":\"Rachel\",\"last_name\":\"Howell\",\"avatar\":\"https:\/\/reqres.in\/img\/faces\/12-image.jpg\"}],\"support\":{\"url\":\"https:\/\/reqres.in\/#support-heading\",\"text\":\"To keep ReqRes free, contributions towards server costs are appreciated!\"}}\n\n"},{"result":{"nanos":42200,"millis":0.0422,"status":"passed"},"step":{"line":37,"prefix":"Then","index":3,"text":"status 200"}},{"result":{"nanos":3237000,"millis":3.237,"status":"passed"},"step":{"line":38,"prefix":"And","index":4,"text":"print response"},"stepLog":"21:31:03.857 [print] {\n  \"page\": 2,\n  \"per_page\": 6,\n  \"total\": 12,\n  \"total_pages\": 2,\n  \"data\": [\n    {\n      \"id\": 7,\n      \"email\": \"michael.lawson@reqres.in\",\n      \"first_name\": \"Michael\",\n      \"last_name\": \"Lawson\",\n      \"avatar\": \"https:\/\/reqres.in\/img\/faces\/7-image.jpg\"\n    },\n    {\n      \"id\": 8,\n      \"email\": \"lindsay.ferguson@reqres.in\",\n      \"first_name\": \"Lindsay\",\n      \"last_name\": \"Ferguson\",\n      \"avatar\": \"https:\/\/reqres.in\/img\/faces\/8-image.jpg\"\n    },\n    {\n      \"id\": 9,\n      \"email\": \"tobias.funke@reqres.in\",\n      \"first_name\": \"Tobias\",\n      \"last_name\": \"Funke\",\n      \"avatar\": \"https:\/\/reqres.in\/img\/faces\/9-image.jpg\"\n    },\n    {\n      \"id\": 10,\n      \"email\": \"byron.fields@reqres.in\",\n      \"first_name\": \"Byron\",\n      \"last_name\": \"Fields\",\n      \"avatar\": \"https:\/\/reqres.in\/img\/faces\/10-image.jpg\"\n    },\n    {\n      \"id\": 11,\n      \"email\": \"george.edwards@reqres.in\",\n      \"first_name\": \"George\",\n      \"last_name\": \"Edwards\",\n      \"avatar\": \"https:\/\/reqres.in\/img\/faces\/11-image.jpg\"\n    },\n    {\n      \"id\": 12,\n      \"email\": \"rachel.howell@reqres.in\",\n      \"first_name\": \"Rachel\",\n      \"last_name\": \"Howell\",\n      \"avatar\": \"https:\/\/reqres.in\/img\/faces\/12-image.jpg\"\n    }\n  ],\n  \"support\": {\n    \"url\": \"https:\/\/reqres.in\/#support-heading\",\n    \"text\": \"To keep ReqRes free, contributions towards server costs are appreciated!\"\n  }\n}\n \n"},{"result":{"nanos":101942200,"errorMessage":"match failed: NOT_EQUALS\n  $ | actual path does not exist (STRING:NULL)\n  '#notpresent'\n  null\n\nsrc\/test\/java\/Test\/Get.feature:39","millis":101.9422,"status":"failed"},"step":{"line":39,"prefix":"And","index":5,"text":"match response.x.data[0].name != null"},"stepLog":"21:31:03.960 src\/test\/java\/Test\/Get.feature:39\nAnd match response.x.data[0].name != null\nmatch failed: NOT_EQUALS\n  $ | actual path does not exist (STRING:NULL)\n  '#notpresent'\n  null\n\nsrc\/test\/java\/Test\/Get.feature:39\n"},{"result":{"nanos":0,"millis":0.0,"status":"skipped"},"step":{"line":40,"prefix":"And","index":6,"text":"assert response.data.length == 5"}},{"result":{"nanos":0,"millis":0.0,"status":"skipped"},"step":{"line":41,"prefix":"And","index":7,"text":"match response.data[3].id == 10"}}],"line":33,"description":"","durationMillis":243.9928,"failed":true,"error":"match failed: NOT_EQUALS\n  $ | actual path does not exist (STRING:NULL)\n  '#notpresent'\n  null\n\nsrc\/test\/java\/Test\/Get.feature:39","executorName":"main","name":"Get Demo 3","startTime":1663983063713,"refId":"[4:33]","endTime":1663983063960,"exampleIndex":-1}],"callDepth":0,"name":"Fet API Demo","description":"","resultDate":"2022-09-23 09:31:03 pm","durationMillis":2106.9048,"passedCount":3}